doc/rp2040-logic-analyzer/hcsr04/test48.222607.vcd
$date
   Date text. For example: November 11, 2009.
$end
$version
   VCD generator tool version info text.
$end
$comment
   Any comment text.
$end
$timescale 1us $end
$scope module logic $end
$var wire 8 # data $end
$var wire 1 $ ch0 $end
$var wire 1 % ch1 $end
$var wire 1 & ch2 $end
$var wire 1 ' ch3 $end
$var wire 1 ( empty $end

$upscope $end
$enddefinitions $end
$dumpvars
bxxxxxxxx #
x$
0%
x&
x'
1(

$end
 #0
1%
#2837
0%
#61557
1&
#61567
0&
#64608
1%
#67445
0%
#126165
1&
#126175
0&
#129191
1%
#132002
0%
#190722
1&
#190732
0&
#193747
1%
#196557
0%
