doc/rp2040-logic-analyzer/hcsr04/test21.043552.vcd
$date
   Date text. For example: November 11, 2009.
$end
$version
   VCD generator tool version info text.
$end
$comment
   Any comment text.
$end
$timescale 1us $end
$scope module logic $end
 
$var wire 1 % ch0 $end
$var wire 1 & ch1 $end
$var wire 1 ' ch2 $end
$var wire 1 ( ch3 $end
 

$upscope $end
$enddefinitions $end
$dumpvars
 

0%
0&
0'
0(

$end
 #0
1%
#0
1'
#10
0%
#10
0'
#1452
1&
#1452
1(
#2690
0&
#2690
0(
#61410
1%
#61410
1'
#61420
0%
#61420
0'
#62862
1&
#62862
1(
#64100
0&
#64100
0(
#122820
1%
#122820
1'
#122830
0%
#122830
0'
#124271
1&
#124271
1(
#125509
0&
#125509
0(
#184230
1%
#184230
1'
#184240
0%
#184240
0'
#185681
1&
#185681
1(
#186919
0&
#186919
0(
#245640
1%
#245640
1'
#245649
0%
#245649
0'
#247091
1&
#247091
1(
#248329
0&
#248329
0(
